…
Se puede installar la versión en desarrollo desde
[GitHub](https://github.com/) con:

``` r
# install.packages("devtools")
devtools::install_github("acastroaraujo/ccc")
```

## Buscar por palabra clave

``` r
library(ccc)
df <- palabra_clave("jep", p = 0)
df
#> # A tibble: 100 x 4
#>    sentencia type   year url                               
#>    <chr>     <chr> <int> <chr>                             
#>  1 A613-19   A      2019 /Relatoria/autos/2019/A613-19.htm 
#>  2 A556-19   A      2019 /Relatoria/autos/2019/A556-19.htm 
#>  3 A531-19   A      2019 /Relatoria/autos/2019/A531-19.htm 
#>  4 A508A-19  A      2019 /Relatoria/autos/2019/A508A-19.htm
#>  5 A508-19   A      2019 /Relatoria/autos/2019/A508-19.htm 
#>  6 A503-19   A      2019 /Relatoria/autos/2019/A503-19.htm 
#>  7 A490-19   A      2019 /Relatoria/autos/2019/A490-19.htm 
#>  8 A489-19   A      2019 /Relatoria/autos/2019/A489-19.htm 
#>  9 A475-19   A      2019 /Relatoria/autos/2019/A475-19.htm 
#> 10 A467-19   A      2019 /Relatoria/autos/2019/A467-19.htm 
#> # … with 90 more rows
```
…
