…
  A lot of these cases are related to healthcare access and pensions.

- `SU` refers to decisions in which the Court has decided to compile
  several `T` cases. They are a sort of legally binding “Annual Reviews”
  for the judicial system in Colombia.

### Citations

`metadata` contains information on each ruling.

``` r
metadata
#> # A tibble: 28,245 × 9
#>   id      type   year date       indegree outdegree word_count descriptors url  
#>   <chr>   <fct> <int> <date>        <int>     <int>      <int> <list>      <chr>
#> 1 T-001-… T      1992 1992-04-03      188         0       7060 <chr [14]>  http…
#> 2 C-004-… C      1992 1992-05-07      119         0      20107 <chr [11]>  http…
#> 3 T-002-… T      1992 1992-05-08      286         0       7597 <chr [4]>   http…
#> 4 T-003-… T      1992 1992-05-11      146         0       5760 <chr [8]>   http…
#> 5 C-005-… C      1992 1992-05-11        7         1       6869 <chr [11]>  http…
#> 6 T-006-… T      1992 1992-05-12      228         0      32408 <chr [21]>  http…
#> # ℹ 28,239 more rows
```

`citations` contains the citation network in “edge list” format. Each
citation has a `weight` that refers to the *number* of times a ruling
cites a previous case.

``` r
citations
#> # A tibble: 694,565 × 5
#>   from     to       weight from_date  to_date   
#>   <fct>    <fct>     <int> <date>     <date>    
#> 1 C-001-18 C-004-93      1 2018-01-24 1993-01-14
#> 2 C-001-18 C-007-01      1 2018-01-24 2001-01-17
#> 3 C-001-18 C-008-17      2 2018-01-24 2017-01-18
#> 4 C-001-18 C-030-03      1 2018-01-24 2003-01-28
#> 5 C-001-18 C-037-96      3 2018-01-24 1996-02-05
#> 6 C-001-18 C-041-93      1 2018-01-24 1993-02-11
#> # ℹ 694,559 more rows
```
…
### Text Features

*See Denny and Spirling (2018) for an in-depth discussion of various
pre-processing steps (e.g., removal of stop words, lemmatization,
lowercasing).*

The `docterms` dataset contains a data frame with document identifiers
(`id`) and word counts (`lemma` and `n`). It has 24,836,293 rows.

``` r
docterms
#> # A tibble: 24,836,293 × 3
#>   id       lemma          n
#>   <fct>    <fct>      <int>
#> 1 T-001-92 abril          1
#> 2 T-001-92 abstencion     1
#> 3 T-001-92 abstener       2
#> 4 T-001-92 acabar         3
#> 5 T-001-92 acatar         2
#> 6 T-001-92 acceder        2
#> # ℹ 24,836,287 more rows
```
…
