Data • ccc
…
A lot of these cases are related to healthcare access and
pensions.

SU refers to decisions in which the Court has
decided to compile several T cases. They are a sort of
legally binding “Annual Reviews” for the judicial system in
Colombia.

Citations

metadata contains information on each ruling.

metadata
#> # A tibble: 28,242 × 9
#>   id      type   year date       indegree outdegree word_count descriptors url  
#>   <chr>   <fct> <int> <date>        <int>     <int>      <int> <list>      <chr>
#> 1 T-001-… T      1992 1992-04-03      188         0       7060 <chr [14]>  http…
#> 2 C-004-… C      1992 1992-05-07      119         0      20107 <chr [11]>  http…
#> 3 T-002-… T      1992 1992-05-08      286         0       7597 <chr [4]>   http…
#> 4 T-003-… T      1992 1992-05-11      146         0       5760 <chr [8]>   http…
#> 5 C-005-… C      1992 1992-05-11        7         1       6869 <chr [11]>  http…
#> 6 T-006-… T      1992 1992-05-12      228         0      32408 <chr [21]>  http…
#> # ℹ 28,236 more rows

citations contains the citation network in “edge list”
format. Each citation has a weight that refers to the
number of times a ruling cites a previous case.

citations
#> # A tibble: 694,293 × 5
#>   from     to       weight from_date  to_date   
#>   <fct>    <fct>     <int> <date>     <date>    
#> 1 C-001-18 C-004-93      1 2018-01-24 1993-01-14
#> 2 C-001-18 C-007-01      1 2018-01-24 2001-01-17
#> 3 C-001-18 C-008-17      2 2018-01-24 2017-01-18
#> 4 C-001-18 C-030-03      1 2018-01-24 2003-01-28
#> 5 C-001-18 C-037-96      3 2018-01-24 1996-02-05
#> 6 C-001-18 C-041-93      1 2018-01-24 1993-02-11
#> # ℹ 694,287 more rows
…
sum(M[upper.tri(M)] > 0L)
#> [1] 366

Text Features

See Denny and Spirling (2018) for
an in-depth discussion of various pre-processing steps (e.g., removal of
stop words, lemmatization, lowercasing).

The docterms dataset contains a data frame with document
identifiers (id) and word counts (lemma and
n). It has 24,861,423 rows.

docterms
#> # A tibble: 24,861,423 × 3
#>   id       lemma         n
#>   <fct>    <fct>     <int>
#> 1 C-001-18 abierto       2
#> 2 C-001-18 abordar       1
#> 3 C-001-18 absoluto      1
#> 4 C-001-18 abstracto    12
#> 5 C-001-18 academia      3
#> 6 C-001-18 academico     1
#> # ℹ 24,861,417 more rows
…
Other Cases

Gender

gender_cases contains cases related to gender equality
across a variety of topics, collected by domain experts here.

gender_cases
#> # A tibble: 578 × 2
#>   id       tema                                          
#>   <chr>    <fct>                                         
#> 1 T-085-24 Derecho a la igualdad y a la no discriminación
#> 2 T-082-24 Derecho a la igualdad y a la no discriminación
#> 3 T-061-24 Derecho a la igualdad y a la no discriminación
#> 4 T-063-24 Derecho a la igualdad y a la no discriminación
#> 5 C-054-24 Derecho a la igualdad y a la no discriminación
#> 6 T-010-24 Derecho a la igualdad y a la no discriminación
#> # ℹ 572 more rows
…
